1 10 20
100 200 125
201 210 89
900 1000 174
10 1 20
1 1 1
1 100000 351
3143 38156 324
90236 12435 351
12665 30408 308
10849 69833 340
25981 75059 340
45663 64749 340
83662 97078 333
38632 36685 306
34624 76231 340
25523 91945 351
60589 98341 351
63214 83584 351
67126 75577 325
85020 27789 351
65562 85803 351
85653 19121 351
20427 19922 243
9214 81457 351
46137 67641 340
95096 37765 351
79328 90263 333
63308 84053 351
72416 6937 340
58997 86697 351
9229 26189 282
86647 93569 333
8212 47679 324
90823 55364 351
3424 68495 340
6527 38377 324
87250 4719 351
60496 49190 340
65606 87850 351
44258 59474 340
3314 63509 340
43937 27522 324
30482 25949 308
1509 65008 340
63550 46191 340
2572 90715 351
60280 79586 351
78378 89450 338
38729 81437 351
10297 85668 351
22456 60990 340
26755 26433 308
86953 42883 351
97106 95095 297
20489 74784 340
46119 5888 324
50800 15116 324
58468 55702 322
23941 4988 282
89897 26503 351
57630 19707 340
30304 77906 351
2764 99910 351
92179 56631 351
66661 9643 340
86752 72624 351
3481 52540 340
77043 22694 351
80400 41349 351
95839 6113 351
5411 69960 340
35450 81801 351
33406 4815 308
15230 20967 279
42614 7731 324
92595 31601 351
17993 62679 340
86250 980 351
6923 62363 340
73125 89458 351
85112 19236 351
5216 26595 282
66983 12781 340
45102 54791 340
36784 68678 340
72206 32206 340
24765 22295 282
81265 36871 351
25917 16203 282
75940 27001 340
32687 84002 351
64912 61691 330
52712 56919 322
83064 81192 320
23922 78924 351
69372 26950 340
56327 96485 351
6829 16990 276
35061 10325 311
6432 91941 351
18679 74456 340
79280 3846 351
92553 35161 351
92263 73706 351
41545 67862 340
90876 55595 351
40675 70412 340
75165 74402 325
13343 22718 279
86398 37476 351
2042 26144 282
70587 19909 340
75305 30262 340
54724 90784 351
85343 86013 302
75494 48480 340
64975 90803 351
45207 50306 314
86685 43137 351
90080 75913 351
18352 82245 351
91933 2143 351
92129 9530 351
5926 74833 340
26781 80277 351
55171 39382 340
83702 66917 351
44280 65426 340
60473 94034 351
26599 61807 340
99596 2000 351
49407 81556 351
45611 25345 324
81903 92234 333
18816 86803 351
78522 29770 351
10096 99178 351
62993 63813 330
79362 31890 351
43263 89532 351
46318 24702 324
92261 2288 351
88300 57996 351
45224 46337 252
50488 97597 351
10611 36413 324
31239 62996 340
78290 46210 351
49032 4008 324
98314 26530 351
24351 56732 340
92149 93237 315
43893 13760 324
93719 78227 338
1128 25682 282
32958 28579 285
9999 9999 92
9000 1 262
76 75 23
109 110 114
2 100000 351
