1 10 20
468915 572491 470
782 1521 182
160061 593778 470
788946 931842 525
214177 980745 525
86553 848244 525
62122 461632 449
616938 920605 525
685014 881967 525
20668 539158 470
653464 807821 504
311556 799862 509
476670 884786 525
82505 567476 470
17969 685878 509
280774 893117 525
32250 476232 449
148202 424405 449
488668 853400 525
535832 864344 525
512509 774899 509
324639 748269 509
349300 853580 525
560974 709387 509
169083 510561 449
395820 612533 470
81812 84308 320
446775 588054 470
341918 819794 509
213980 249108 443
251702 574095 470
3603 786867 509
628009 907443 525
881882 922850 476
136496 141112 344
123974 327031 443
580836 971516 525
72357 300739 443
285367 641301 509
113451 992852 525
106162 631231 509
9197 878081 525
49993 115390 354
145877 231520 443
536799 569870 452
335170 813143 509
148472 992526 525
143523 579519 470
206934 870693 525
29065 990400 525
290837 711151 509
74963 958835 525
58410 279058 443
44449 462450 449
691467 815009 504
461928 867579 525
313368 618030 470
585822 798162 509
199032 507495 449
634184 922744 525
28115 745069 509
392381 778604 509
629091 907086 525
467088 865592 525
433738 574286 470
23192 333556 443
457237 872364 525
199445 878748 525
85563 596273 470
55733 923049 525
731607 738125 424
719631 954251 525
48783 726449 509
128564 810101 509
186567 893251 525
145305 472681 449
194522 240521 443
466066 696064 509
381664 959387 525
110031 200377 383
64524 977317 525
156896 608664 470
410283 916339 525
364377 393553 436
172762 238303 443
149244 721429 509
196458 210537 373
188856 585752 470
714840 765089 424
493323 734941 509
570223 654632 509
737597 988165 525
745727 940122 525
193615 545434 470
202065 742358 509
166027 790055 509
587390 937457 525
463067 514062 470
799433 907673 525
340868 994894 525
303174 907010 525
746218 971569 525
63808 390992 443
316391 871813 525
25035 967459 525
587212 662382 509
261840 973931 525
411956 901391 525
796989 864730 525
168651 594308 470
87820 219400 386
131298 639382 509
605169 986873 525
583156 676952 509
8523 616442 470
209025 999287 525
284785 426211 449
535536 732651 509
225052 468802 449
249376 335476 407
184505 837472 509
23136 486902 449
252077 335344 407
87129 787799 509
409325 679320 509
223020 358747 443
323059 613238 470
178903 584092 470
166159 947844 525
97387 844950 525
539910 828535 509
739675 975633 525
123977 761261 509
697148 940517 525
506525 987169 525
101492 844804 525
73132 815635 509
292897 686354 509
342402 675785 509
637497 736789 504
211315 835787 509
31706 245348 443
335676 713692 509
366539 542901 470
472779 709796 509
176059 228611 386
32805 574399 470
232856 453466 449
832360 891208 525
449404 474812 444
828674 985835 525
748837 809731 468
172558 442634 449
48016 548160 470
74946 940154 525
61008 472391 449
42468 467312 449
546249 792839 509
79751 829786 509
119155 415852 449
293820 935620 525
290536 600355 470
378034 378574 255
358466 576102 470
74042 801525 509
135709 379329 443
690997 869380 525
76415 80315 351
712179 814830 468
549665 659338 509
212420 699316 509
673000 937470 525
498420 622226 470
824965 851274 525
153223 681249 509
783339 996667 525
476773 810030 509
567626 591746 434
658116 951263 525
857117 943671 507
416335 836605 509
226547 494730 449
277287 537484 470
75069 88863 351
352785 428875 449
135851 344747 443
291414 952579 525
53180 162047 383
294595 549387 470
12300 617111 470
548593 813354 509
756516 882111 525
230264 640912 509
432307 548651 470
259442 568355 470
538196 706953 509
99819 358053 443
147693 510787 449
543747 831349 509
