...................
----------------------------------------------------------------------
Ran 19 tests in 3.671s

OK
Name             Stmts   Miss Branch BrPart  Cover   Missing
------------------------------------------------------------
Collatz.py          42      0     16      0   100%
TestCollatz.py      76      0      0      0   100%
------------------------------------------------------------
TOTAL              118      0     16      0   100%
