1 10 20
100 200 125
201 210 89
900 1000 174
268 772 171
204 660 145
441 1501 182
927 1568 182
38 594 144
70 2302 183
1675 2382 183
1160 1572 182
81 1359 182
525 1175 182
2337 2360 152
561 1456 182
605 2102 182
1243 1323 177
1531 1589 167
111 1529 182
441 1530 182
44 893 179
632 2409 183
532 2304 183
388 821 171
43 899 179
392 1054 179
1476 1658 167
601 2432 183
1676 1999 180
926 1859 182
664 2336 183
775 1250 182
2141 2303 183
1966 2189 170
915 2150 182
670 817 171
36 796 171
658 2120 182
1536 2120 180
1184 2458 183
1308 1366 159
135 2128 182
1877 2250 183
840 1394 182
198 1615 182
1148 1382 182
24 1228 182
9 1596 182
591 1489 182
1368 2359 183
1421 1686 180
751 1808 182
608 2316 183
3945 4227 189
3063 4108 238
2838 2982 217
3620 4431 238
3372 4332 238
3251 4271 238
3683 3734 238
2613 3447 217
3844 4160 189
3354 3691 194
2608 4648 238
3804 4793 215
2520 2929 217
2503 2712 191
2570 4276 238
4123 4638 215
3988 4479 215
3410 4910 238
3828 4529 215
2614 4368 238
3952 4471 215
3788 4666 215
4027 4444 215
3212 4683 238
2557 3283 217
3017 4915 238
4348 4542 215
3178 3529 181
3673 4718 238
4483 4581 184
2730 4333 238
2750 4758 238
2529 3669 217
3168 4561 238
3555 3844 238
2630 3646 217
2699 3027 217
3460 3685 194
2821 4368 238
2824 3643 217
4498 4568 184
2972 3202 199
3423 4339 238
3092 3748 238
3973 4784 215
3013 3059 155
2581 4543 238
2958 3121 186
4643 4931 210
3037 3140 186
5664 7459 262
6026 6110 187
5246 6639 262
6618 7421 257
5146 7211 262
5078 7127 262
5142 7265 262
5381 7110 262
5496 7198 262
6265 7241 257
6161 7417 262
6264 6576 213
6262 6527 200
6406 7034 257
5100 7155 262
5253 6171 262
5094 7183 262
5778 7224 262
6241 7050 257
5291 6669 262
6539 6927 244
5858 5905 174
5087 7387 262
5622 6591 262
6406 7309 257
6343 6525 200
5678 6950 262
6795 7011 257
7027 7211 195
5157 6365 262
5140 6919 262
5139 5290 192
6998 7404 208
5386 5496 192
5469 6317 262
6097 7036 262
5013 7110 262
5233 7290 262
5121 6251 262
5651 6428 262
6171 7013 262
5900 7009 262
5592 6103 218
6444 6583 213
7152 7166 133
5115 6888 262
5561 5880 236
5186 7214 262
5508 6315 262
5188 5790 236
8704 9049 247
8775 8872 172
8972 9975 260
7956 9940 260
8464 8499 203
7912 9804 260
7898 9820 260
8228 9458 260
8210 8310 190
8671 8997 247
7619 9813 260
8281 8406 234
9371 9628 198
8317 9951 260
8303 9681 260
8166 9792 260
7667 7685 177
7561 9358 260
8427 8965 247
7577 9904 260
7645 8625 252
8094 9141 247
7615 9837 260
8175 9057 247
8054 9650 260
8140 8839 234
7713 9526 260
9022 9887 260
7807 8362 252
8897 8922 141
7903 9777 260
8750 9948 260
7625 9696 260
7694 8094 252
8059 8638 234
8544 8756 203
8295 9577 260
8627 9546 260
8902 9168 247
1 1 1
2 2 2
996000 997000 365
998000 999000 396
2500 5010 238
