1 10 20
100 200 125
201 210 89
900 1000 174
340 320 144
568 1 144
1 200000 383
12936 1 268
12 1283 182
1231 45 182
2000 3000 217
3000 4000 238
23621 2876 282
2136 8976 262
1 1000000 525
1000000 1 525
35474 23728 311
23216 8232 279
23117 2465 279
32321 3213 308
4582 3438 238
2614 8465 262
12487 670900 509
300 400 144
500 600 137
700 800 171
900 1000 174
1000 1100 169
1200 1400 177
1300 1547 177
1162 8236 262
3251 8754 262
23715 76789 340
39361 3361 324
747 18236 279
2 3431 217
124813 21312 354
1236 1096 182
3 314 131
75 9471 262
12367 3631 268
213123 4444 383
333 344 126
2432 4331 238
2132 5957 238
35213 1 311
34 561 144
2385 471 183
461 6 144
1284 3 182
461 3971 238
484 471 129
14614 3348 276
361 461 134
2726 4981 238
1484 9136 262
47461 877 324
2099 1 182
1 5678 238
2371 41247 324
4127 841 238
241 481 144
1461 4 182
147 414 144
1 14712 276
421 412 134
442 5716 238
1244 5512 238
82169 42612 351
90000 42624 351
24716 47126 324
425421 422424 418
24724 424220 449
248241 6780 443
123 4567 238
1234 67890 340
2361 2471 209
47346 9880 324
23725 922625 525
2361 1000000 525
235 888 179
11 22 21
33 55 113
55 66 113
77 88 111
66 77 116
667 778 171
2361 3937 238
37135 37333 262
33663 377 308
38371 3716 324
30000 53611 340
376354 3635 443
37317 53163 340
3770 5899 236
3713 677 238
37136 6314 324
1373 31393 308
3163 6451 262
31613 3713 308
