.....................
----------------------------------------------------------------------
Ran 21 tests in 6.984s

OK
Name             Stmts   Miss Branch BrPart  Cover   Missing
------------------------------------------------------------
Collatz.py          43      0     22      0   100%
TestCollatz.py      83      0      2      0   100%
------------------------------------------------------------
TOTAL              126      0     24      0   100%
