..................
----------------------------------------------------------------------
Ran 18 tests in 1.278s

OK
Name             Stmts   Miss Branch BrPart  Cover   Missing
------------------------------------------------------------
Collatz.py          37      0     18      0   100%
TestCollatz.py      78      0      2      0   100%
------------------------------------------------------------
TOTAL              115      0     20      0   100%
