......................
----------------------------------------------------------------------
Ran 22 tests in 0.044s

OK
Name             Stmts   Miss Branch BrPart  Cover   Missing
------------------------------------------------------------
Collatz.py          53      0     24      0   100%
TestCollatz.py      94      0      2      0   100%
------------------------------------------------------------
TOTAL              147      0     26      0   100%
