..................
----------------------------------------------------------------------
Ran 18 tests in 0.584s

OK
Name             Stmts   Miss Branch BrPart  Cover   Missing
------------------------------------------------------------
Collatz.py          37      6     16      1    79%   55-61
TestCollatz.py      79      0      2      0   100%
------------------------------------------------------------
TOTAL              116      6     18      1    92%
