1 999999 525
28472 24923 308
246 31913 308
18391 42092 324
13 24913 282
4924 24981 282
10842 1391 262
237 6723 262
1947 29731 308
2847 1731 209
24972 25000 189
138 5792 238
1093 24862 282
24628 28461 308
4289 42994 324
4820 428 238
10001 11000 268
13829 4926 276
5792 5800 205
42480 6504 324
5792 24795 282
2593 35739 324
59253 53892 322
10354 43030 324
35085 35893 324
5729 24972 282
2497 2499 178
8931 13103 268
38 142 122
303341 301000 340
19372 19500 199
46293 46300 146
53661 54901 260
63132 193 340
36952 36999 218
50219 51930 309
31825 33919 267
85761 85829 258
20686 21903 256
93302 93357 284
72966 73000 219
32897 32981 267
23565 23782 251
23192 23200 207
29259 29300 166
29687 30000 272
55979 55999 154
2796 3000 217
15945 15946 59
22600 22607 114
92472 90000 333
25958 18374 282
67016 19347 340
1179 1942 180
72654 72700 263
35116 35500 311
45009 45802 314
100000 100133 310
46899 47000 252
582 1700 182
34020 28421 285
28967 19838 308
10142 10139 87
89123 90311 315
19887 20819 243
33936 34000 205
92497 92193 284
61917 48268 340
48 4893 238
74252 75000 325
91357 92103 333
73389 73497 294
62520 62546 149
31180 31981 285
16453 17001 266
999999 999999 259
1010 137623 354
19 20 21
145 20345 279
541446 540000 408
27831 29114 259
513370 628774 509
381284 569023 470
343642 343781 304
855807 999999 507
628447 628446 235
278179 211111 443
678804 226447 509
698590 724563 504
847566 848566 326
351269 351270 154
286499 289356 389
501007 510342 426
554918 546724 421
327510 347690 441
896765 923456 476
683085 684234 380
49256 51034 296
547100 578340 421
840414 813245 525
3932 3950 189
228232 228435 355
141976 142341 313
802993 823784 450
143761 289456 443
802420 812674 406
190428 209378 373
444921 444930 263
626926 689203 442
478833 618239 470
997419 999999 440
243282 256738 363
768872 625364 509
362846 375648 392
279 379 144
439413 440857 356
987303 984563 427
297879 299374 371
757752 760284 362
212340 239484 443
881598 928384 476
747044 827482 468
4329 5739 236
117856 293794 443
500149 648394 509
70567 64859 312
64707 92849 351
540228 837394 509
241356 828493 509
660642 628493 429
215179 364839 443
213009 236274 443
820675 837393 419
770713 828493 468
339704 628483 509
273431 527493 470
94090 102930 341
388092 475849 449
668383 794839 504
735102 738384 424
84607 92748 333
991386 918392 507
32392 65737 340
993422 947384 458
401838 492843 449
213733 827483 509
727912 727473 318
563725 758384 509
64311 64637 255
730960 727483 380
