..................
----------------------------------------------------------------------
Ran 18 tests in 0.102s

OK
Name             Stmts   Miss Branch BrPart  Cover   Missing
------------------------------------------------------------
Collatz.py          43      0     16      0   100%
TestCollatz.py      75      0      0      0   100%
------------------------------------------------------------
TOTAL              118      0     16      0   100%
