..................
----------------------------------------------------------------------
Ran 18 tests in 0.076s

OK
Name             Stmts   Miss Branch BrPart  Cover   Missing
------------------------------------------------------------
Collatz.py          27      0      8      0   100%
TestCollatz.py      86      0      6      0   100%
------------------------------------------------------------
TOTAL              113      0     14      0   100%
