..................
----------------------------------------------------------------------
Ran 18 tests in 0.996s

OK
Name             Stmts   Miss Branch BrPart  Cover   Missing
------------------------------------------------------------
Collatz.py          30      0     12      0   100%
TestCollatz.py      75      0      2      0   100%
------------------------------------------------------------
TOTAL              105      0     14      0   100%
