.......................
----------------------------------------------------------------------
Ran 23 tests in 0.091s

OK
Name             Stmts   Miss Branch BrPart  Cover   Missing
------------------------------------------------------------
Collatz.py          50      0     24      0   100%
TestCollatz.py      92      0      2      0   100%
------------------------------------------------------------
TOTAL              142      0     26      0   100%